{
  "unknown": "../home",
  "root": "../home",
  "host": "localhost",
  "port": 9090,
  "rootName": "my_server",
  "gateway": [
    {
      "segment": "home",
      "handleUnknownAsRoot": true,
      "root": "MyHomePage",
      "child": {
        "gate": {
          "allowed_agents": [
            "http",
            "webSocket"
          ]
        },
        "gate_child": {
          "gate": {
            "auth_required": true
          },
          "gate_child": "MySecondEndpoint"
        }
      }
    },
    {
      "segment": "user",
      "handleUnknownAsRoot": false,
      "child": [
        {
          "segment": "media",
          "root": "UserMedia"
        },
        {
          "segment": "post",
          "root": "UserPost"
        },
        {
          "segment": "{user_id}",
          "child": [
            {
              "segment": "settings",
              "root": {
                "gate_child": "UserSettings",
                "gate": {
                  "equals": {
                    "or": [
                      {
                        "eq": [
                          "a",
                          "b"
                        ]
                      },
                      {
                        "eq": [
                          "c",
                          "d"
                        ]
                      },
                      {
                        "and": [
                          {
                            "eq": [
                              "$user_id",
                              "token.uid"
                            ]
                          },
                          {
                            "eq": [
                              "$user_id",
                              "token.uid"
                            ]
                          }
                        ]
                      }
                    ]
                  }
                }
              }
            },
            {
              "segment": "notifications",
              "root": "UserNotifications"
            }
          ]
        }
      ]
    }
  ]
}