{
  "$id": "style_server_schema",
  "description": "Style Server Schema for generate server or generate documentation",
  "definitions": {
    "endpoint": {
      "type": "string"
    },
    "gateway": {
      "type": "array",
      "minItems": 2,
      "items": {
        "$ref": "#/definitions/path_route"
      }
    },
    "auth_gate" : {
      "type": "object",
      "required": ["auth_required"],
      "properties": {
        "auth_required" : {
          "type": "boolean"
        }
      }
    },


    "condition" : {
      "type": "object",
      "oneOf": [
        {
          "required": ["eq"]
        },
        {
          "required": ["ne"]
        },
        {
          "required": ["and"]
        },
        {
          "required": ["or"]
        }
      ],
      "properties": {
        "eq": {
          "type": "array",
          "items": {
            "type": "string"
          },
          "uniqueItems": true,
          "maxItems": 2,
          "minItems": 2
        }
      ,
        "ne" : {
          "type": "array",
          "items": {
            "type": "string"
          },
          "uniqueItems": true,
          "maxItems": 2,
          "minItems": 2
        },
        "and" : {
          "type": "array",
          "minItems": 2,
          "items": {
            "$ref": "#/definitions/condition"
          }
        },
        "or" : {
          "type": "array",
          "minItems": 2,
          "items": {
            "$ref": "#/definitions/condition"
          }
        }
      }
    },

    "permission_gate" : {
      "type": "object",
      "required": ["equals"],
      "properties": {
        "equals" : {
          "$ref": "#/definitions/condition"
        }
      }
    },

    "agent" : {
      "type": "string",
      "enum": [
        "http",
        "webSocket",
        "internal"
      ]
    },

    "agent_gate" : {
      "type": "object",
      "required": ["allowed_agents"],
      "properties": {
        "allowed_agents" : {
          "type": "array",
          "uniqueItems": true,
          "items": {
            "$ref": "#/definitions/agent"
          }
        }
      }
    },
    "component" : {
      "oneOf": [
        {
          "$ref": "#/definitions/endpoint"
        },
        {
          "$ref": "#/definitions/path_route"
        },
        {
          "$ref": "#/definitions/gateway"
        },
        {
          "$ref": "#/definitions/gate_component"
        }
      ]
    },
    "gate_component": {
      "type": "object",
      "required": [
        "gate_child",
        "gate"
      ],
      "properties": {
        "gate_child": {
          "$ref": "#/definitions/component"
        },
        "gate": {
          "oneOf": [
            {
              "$ref": "#/definitions/auth_gate"
            },
            {
              "$ref": "#/definitions/agent_gate"
            },
            {
              "$ref": "#/definitions/permission_gate"
            }
          ]
        }
      }
    },
    "path_route": {
      "type": "object",
      "required": [
        "segment"
      ],
      "properties": {
        "segment": {
          "type": "string"
        },
        "child": { "$ref": "#/definitions/component"},
        "root": { "$ref": "#/definitions/component"},
        "handleUnknownAsRoot": {
          "type": "boolean"
        }
      },
      "allOf": [
        {
          "anyOf": [
            {
              "required": [
                "root"
              ]
            },
            {
              "required": [
                "child"
              ]
            }
          ]
        },
        {
          "oneOf": [
            {
              "properties": {
                "handleUnknownAsRoot": {
                  "const" : false
                }
              }
            },
            {
              "required": [
                "root"
              ]
            }
          ]
        }
      ]
    }
  },
  "required": [
    "unknown",
    "gateway",
    "root",
    "rootName"
  ],
  "properties": {
    "rootName" : {
      "type": "string"
    },
    "root" : {
      "$ref": "#/definitions/endpoint"
    },

    "gateway": {
      "$ref": "#/definitions/gateway"
    },
    "unknown": {
      "$ref": "#/definitions/endpoint"
    },
    "host": {
      "type": "string",
      "default": "localhost"
    },
    "port": {
      "type": "integer",
      "default": 9090
    }

  }
}